{
  "gitlab_workhorse": {
    "secret_token": "xJHgeHVoXv542ht1BAbYyPOOfAiYyOU82ypBOkAOZXk="
  },
  "gitlab_shell": {
    "secret_token": "92c6ba4db2ae61d6fe9acd486e4c79a25d0b510f316283b97acedd15ad246276c10137c2b27035fe771b58a3a9110bda8f669e3e90c7c5fe49ada8fbe0b01f75"
  },
  "gitlab_rails": {
    "secret_key_base": "2870f65b4910b41664e16e83d7e4a9b2738f7f36c01b4fde1ab56ec64b8b478c63314091beba832dcc5aa02c1744dbcb70bb187ba677ec5e31aae9b8a95517c2",
    "db_key_base": "0363f8463bb7b7a89cdfea2177266953b3f02706137ba6d851411571f92779158e64d44e475efdc9e4c2c308ce414f04103af7939a81335368f6f1ba8c7df6cb",
    "otp_key_base": "83242b4679dc106cb3785eb34a95dae44b87cf9da0b4d3adfb4f977caa481a2f4b9e0829817b40e108c2b165af21637a5faa050d767af15ae9ea8a2929253c39",
    "encrypted_settings_key_base": "63f4e37de56f0460dccae5944c8435aec1623b24fcdf7970d09077062f00b7bb70e3d1d17f655a26b0854633d0c162510554d519348afd68f580e0f52cd7b366",
    "openid_connect_signing_key": "-----BEGIN RSA PRIVATE KEY-----\nMIIJKAIBAAKCAgEAlgDo9ktah/GfQIhYYfAL5JcKiOQt4rlIrJF4o+VT1N8PgYVC\nMQyRoYkTqc+qoRlbfjNc7pbdx+4WAqVCrJ9HDHxwSb1lbTVqefz/IZdQzueVSorp\nkS8buo/dlrxzakeCWLPnZPtFfZmjJ8bMzo0ZVuNNBF/ZynmCF3aXpheVqe5H03es\nZVx8yvgP8xXDhnxPeW6/2tA0NCDs9Fm+yrKpZvOd16Kid84oBxcdPA+JesOFVn3N\nBeAzj2Ly84SW6CSqtrBkGZbhZlb9zz9Bxc6OsdZOFkPCUdOUyjkEh+55Jh+ZGQy6\nQJzlJfY4n7SUOyjakd97xYc4+aImETkpmg25DRpahNLcotqJlv5sMU2fdbEZOIhx\nvMAhomvArnbQMfM24/AvOjx65OpYdKXNHSrO9d2a+irqcvEMzsfX8ICX0nVaWEwp\nypgCYyOktwlZyaax/Wd3HVSZzPU5Hj5X30Lgpskf8xrnaBNJS63lUwoW3zLxT6AX\n5oJvsHi8FMrn3ezu/EgQsjiXBVw7bURLs5jMML4wQ620quPzz0Y8LU0XAosGK/We\niwCtoXChb5+d4n83A22Qh5whZHPs5GolwMARNVfDvyBJQtfb4KduJGgqDRAt2vT8\ntYzrGN6o3buqPLKZOh+0C9tKU3VAUgu7OQxCD49ah0UXyCqWqURcU2j3HXMCAwEA\nAQKCAgB+JQvEO8BJPGdpNH/m9KB7vo0sa38vABPek4M5iRxDksYObMsqRmCd0JHJ\npwrd6V4otfb76cFeZZj65pE4a8Wq+WbQjEakXVxKc/j1/bMGHHhOtJ0Q6+XMsTlu\njtIcWUCDad8465oXssEjLSqEtOHPUN0uxZB4llBRfPiww3qn6etbKXO/1dRYN93p\n1a6VBSssenc7AwYzpFDAeExbV33gRxTBB1LLn4HH3KdIH+TEaXJTNv3YaB/UAClB\noonpdRRfB91WK60njBZrV83vE/KqGQeX76mVeHHS0bo+ucwFxGLSTwK+XXLSxsn9\nfDV/vq54J9GFXl8Kh1Kt/z0+ATZRRe/CXZTBh7GRvYrTeRD3hgbl5N15CeB1YmYl\nIhJckHjlo0mFA8RwDQgeQALRou9J5hJYZT9+iFD6FsmWGAf0h21pp4JxXVWGFZh3\nWEoNtB7O0Y0/1xnMmHox7A+vzO/gNMheDRfLjavelP2lhKvniUgsnL3/1ncwdg5X\n3zWqH6XOAiAS6sXHFArdHofJRDvI2zwo6ksrhEUUrzTsPVHVszTiqUCnJkwY2W6X\nzh/xwsGjhCOnOc3Wgoo9YtRL2+3HsYfWdBsqHZUOnDshmoHdI1qGfB62eeAng/gu\n0W+4JyvQ5irbD09hyre4wcfIQLf0TxTD3rwR5P0pprPWn5X7KQKCAQEAxl7nycf+\nGNlJbElLhoN2XMQL6w0T1fVwvkGzdE5aymhGLAIChY1PehkdWdJdk3z9Pzcon3I8\ndeJxBYXR1STSRW2oaFgQE0JDuHRCK9JBMS5m4K+/iqS+i1Cj8o7FtZS270sRRQIk\n9p01oGdqQi1mFMmEWXhg/7ii4TzZbIptGg428wZR7N5N7H8uHyuV9QWrtS98KA29\nu2MO7N/f/pvLOZ/gKTOf79qbWQNCWpm68A8dwNl8rwrVh/2c0RcjCch9+cxoJFGZ\nbVkgV8Jd3jkaImH45xFahbq6BGrPe0aAeEfFXw1KOkMqqo/TgsvpGyqA9uieG0OY\nXFfS6y2r3lgrfwKCAQEAwZTftU/mPC+r7cxUHsuxHL1HRzoJqMJoVgv3wK0JOViG\nn8JTUFdRmvZK2iwGM282VJ3qgklz3Z5b/rw1In25M1RhuDPFb3Ly32Gm6Wej90dw\nrWWiOgr2qsuNKuClXkWqXi8AKR26e1N7RvkBDxEbouIRg2oA9puUB+u/sC8pODa1\nqQf0tq71RYWWkkiPjb51zdp/zRd/uFzVmm8omvOefOgXjQad6GcA639iTrrnQ7SJ\nisXwAGbYfyeQQmMxltuOS2Sar3dM/uFvHYBkWY1TF+Z4xbwv/Uma4RmOZRxIeZCO\n3xiLPpuMUKrgUuRxXDf/YXBB5QEPJqh9UqiMDhcYDQKCAQBJNRkhdHcnwHjCR8Jh\nn/58ebVUR308htnWvPR3Rbtn21eaQhugIehkzQPx9BqopYXoYHjTbxs0/h5rxVkM\n6gvXp4JxD57PHLNVTUJmXa/FcLRy0ylDB01yqI34pAv+2SUx5mg3KXVutdHmooOq\nbIqxvTTkt/JELWWe7g/naKae6QQKaBiv69KiJsVkp3ct96vIr/+H4JpWn1YQwQYv\nNlunpoLZcb3ijLCsBvHj8bv1f/6g/yJujvcCuuu2lm1N3PnwyCjezmZq3mt7N7Xg\nnv4wFiv/Sn43wBOKMcjkW75ppUMHsyXjnooObAnIyWv7pJH3jR1cPnPqEFc8h5xX\n7/4NAoIBAC921kc5mQUm1ywOTo3iecHHMyPmuhmT2UtH0e5/PuS9rPydBBqN3md1\nfjLyWm7gFN04fxiE9BDh1EKoWQrk8rUAOpmUsBM8hwp4ghl2nQBzltAdPGKo74Q/\nNpTN0h5ETJqdQZfTPzcf5/kl8rmEA1ezwIGNS0EsMmaiyjRjy+KJn48bcUgdq+vo\n7ltdyT0C9xWLPozF9z34HTOpj7Y2h6Sur5+XgL5MCzCy4iLVtwCl0pehItCmZuz+\ngWOVuMH5gXFA8KCXStyv37PHGFPQ0A/rJa+uDcI3+u64em6WObr809slxHaMYyIg\nU7JfauAmpsp4YN/Km7Fp3JiY1QZbaT0CggEBAJmvOq4bHuY3t5o+/OZXOGJIwJ6A\n6LunIX83kNjBwM8E6jRWIIUX+VK1I6MSwHKHMr576wrWBaycYefkq8KONGlymwrc\nNRDzioDnduqZiQiHJWjhtf+/LZonrW7h/8zFhQ2qT0BFzage7/jGgc/M+KW5y6sP\nIl9Hd16z8J9QP+rnjpKyRafKKqR1KJQzAJgpTo17BOc8l1Pclx5RYgIkgPDutRJ9\n/n2dVq36wWoWkRNc/+IczE8XPUjSIQlNH3nF3L59hCOQWgI3Ki2C1/lOOXTWHbD+\n8C6nDW8nWEIWOBPiDHCXwO3l9qw1tajwGV77G2ScBNzBmaNvOyLrm1yYfJc=\n-----END RSA PRIVATE KEY-----\n",
    "ci_jwt_signing_key": "-----BEGIN RSA PRIVATE KEY-----\nMIIJKAIBAAKCAgEA0t58ANaRFSjplG6qh/XBOIJJWbxPsbUBUpYybknHYi6poaVl\nq4bdwSzyLffpTMwQ3lTq5oP5Wny45/uSMMXr0ihkdHyzCVtwM7AE2l2KMQRJI0lq\nFAxWBP8yqxs3bp6mdDmW+5hi0ONJot3q3BNwWiNNCiJy3xq7I1+m+4rANMCnmciy\nYj4KAFFkpMmayz5sNAH7mq/ozxz+ux0TDZzz90mX3fVVyXoH62/Q3Z6m6bOU2VxE\nL2qskRd+3K+Vwkjw69tyEcun/Z9yEMIP64UFClwrTBEZSeAntkzQQ5voe6LvxcC/\nK03mD2tqxsBsX72bJjnc1mrEJ3cT/LXY2Pqduqm+c7L/0ui5S6UDXftOomns+A/i\nEWI1xLdhNrPhbOB/z5tM5+1jbOnuy+malugQ/SsF0qkTknrnBdIxOTo8xm+AKx4h\nLsUlHSaW7txo6GHMatRetQCmuvqBt5/Pm7Ktibnt15aBovsB2Mn2MmSOFZMWWapG\naRL51GHmWFvIcGS0JiuEcA5gYn7EvNTkuqVkbqdqXD/zwgjldWu8+Y1ntLqjGM2r\nCQG8uGOk9ekoqvHpNW7R4FsDSjXGdMEWM2xfxG/PBvG5bhkxL9X+uR/Bxg4UKfsU\nE6jGe8Q60Kxuif5hDP+wiw4WSFkoMt/giM/fEsLuLJ+E1D0DVIn0d5i31tMCAwEA\nAQKCAgBOBCCO0tPUp1FcKGGRcdwuAw4OVDyL+/LkUkuQQF2zNp5t/tqRzpEG4pEr\nbrhzQGDRUUujQ5qi3tguhAX/Y4qvM2CPNH+s65akmPACtm7lWbeRhZzok/PTX3Oo\nmKY2mB3vjEsPBL8yl5Tr2/0DtXFw9/SN1lb3slUgbkhCcoBQRCL+I6HT9S4QFg0N\nZsWNgqfXyhADmCejUQ/xvH0LIVGl4SV96kH2C98YPUNia0tH1bgxfxB/FpGIENBP\n5+qZehEgwgz/BoE9tZsnFhV7xrgpsBYYy462pWcr7Fl1Wh52d78MRBa2d9ixRcW4\niQLPnT/ksa3B6rht/YF4kvMKvBZUiHp3CBFIBX5n7jDOw8RAmP503SyMepJd78tA\nVwtiPSTqPD17z9xJJBopUygaWfA9Y8f+asDRrENI+WYZPXs15Ioy7xqWirhcBrYo\noVzOcjawmEbyjTnA+Cu2U1n0Z75xoUdH0fQaJCjYp/amKgyOf1nMd8hpA1QIFB4k\nCZuBdPbnefgfu00KnkQw6+3YMpD244GMN+RvAnfaPsXaw+rgue95v3juLpycV0fL\na97BejfQ5k+4AbRZmFsH0xP3F3g5mG1kmy9is4MHaBm27vHAHak72QXAFqQwgTcN\naDbZuqi8N7ZJE5SCyA33y7kFE07KFUrZP35JJbBT6VIHwmyx0QKCAQEA7Mtkk6uD\nfzI6tGRul0bxC5RELgY8RLIPf11/CB5nzHaHGuL+Pk+7aXO5gYelG9ekrsOdEPFg\ntjZ+pOe+sktz/RI7hS6vE8NOH+2fOkN7h+RdXDJNvvpGDFqaMCqCVCylF2RZy5Ty\nPnpeuTRm19VEUH5Te0Sy1XerJ3tzRxA1cAfAWyq6+pyaOWr3SHwN715k1guXKSKU\nyppteI6qzFh6vk+qPkReBJ17l/HLCmJglK034g+uNv+lnPvS3mPI7QvA2XlrYUBn\nF06O2onP4PH9xNiuHERnfSalti0x2iJSy/D2/N9doOHaVIFqDUymgOrMMiW2ARPs\n9K9sbKYLVv4G+QKCAQEA4/jMGDMKfe6FBNeZtNn2V2YUxukLUZ6wVCkBxkPrZ/s5\n+5Nqchp4ujVv9SqsbmOFe79vj3aERz1hQYE9Qbza+afJ7xA74CT/S+YZt/xw578f\nCc4MWas1d4bBNhRneExc8kLzyVd5GoGTq66WuHouek4piUdoTcch2LjVGUkYlaBe\nE4DpkS+MekesWxWXpLpVJ6KTiSdHP616GLP3YOPuj6vbyIX0d33TwVdOLgKzIa8f\nzylzJwT9wHOMSxNbmyJ27+id9HUJoywXobvD+qxxr1iAoRqZ/vYHud5K94sscY8r\niLgP6xpTmJfLLiYy8m+RY6iq4J+gXVqzIKdiQOXDKwKCAQA1PGz6Ph8sI5DLKaEr\nZYmfvs+tQT2ffCC707tRifRwJV2uj8X1IFvUE25rTqGyJsMhf1z6iCnkDVBfprJa\nx1fmV4kGIj6+RLR1vSiFItLM9GyA49ZSz1WcRWpQ1d3DKt5a6fa+LFhh74UIQl20\nvH/FUQFXv1QtZeAW2kxKd7xr2XJHjM3Ithh+PCwoIavIWwJ0lNqBJwMooZtm9Tw1\nANdnneV6Zkh05Sr6OCQby45HHsJnknrqZoNHTd5UnT54/KF4wzF/BcmnlcPMIhuY\nSQ9yh/xs4nwZyOyMjpCcqAbRTvVYWKdmGiDJyuaa4ta0ORV7WLsYdvBY+m935cS6\n5BWRAoIBAQDANY0e+inmc6yDoKRf70Xb+p2Z9/MrJfjVfJ2aZLmeOhtxGaGuAtO3\nbEaxFwG7MP3ikE2nT+3HguD1MdpMCsc1p1qCzdUt7wOxIpicn6MyQdoRkkCnecri\ntCNDTYDP1NKpD/or0CyzRH0VS2aYs6tsQ2qR7DrtGPBYob5KS28G+OdY2mAToVt3\n3eZcBaCNqu0RNenewdc4wTMokNQKRSNmzyfHsemktdpMMSghcvVFeToAmJoWVAb+\ntG2c/v1Fl5FgRWioK+WsRgjGvGFIgQx5Is2RB7S/WwC4ncvnWthmBqhV5ZrGRrQk\n/Ba7GknqTlbvB87LBMtY6pgM+BPHU/FxAoIBABcioqOYU58hXvjvHXpr4Xgaj3JB\njwcjQncRPg60Ag6GYiO3t5xAfc8TkzeWkAR/bufwYDRbcPgqMuq4GcvktarS427L\nj50Ria+x9gM7e8iTnGs50Md9122RrhRqKPzdJ6Mgrth/u216D2AbBpgCa/EiXvEF\nUdkiO27wkRoxJIENN+UUC068FQ7kym8D0BHKSEbgLzzW6yT0n54dfW6dQuF36xfv\nLLq8rwnszWu6En2oE4l7OcpKR+JFxIPip+GhARmmjekBgmvWeRqkpQvXd4AqCK9f\nm6x8Sa8hPRXy5kygSq2PXpjZdrhYZtJBm+cz0m54AELTSLgbURqiLbVuzpY=\n-----END RSA PRIVATE KEY-----\n"
  },
  "gitlab_pages": {
    "gitlab_secret": "Pe-m6U7nDISb_maEdEW90ewsvrS2sAWoxbfblzK10kY",
    "gitlab_id": "Y9H6uO15PaIT7WcDzOaZRraQ37yvbqMj1zOWa5LRI7U",
    "auth_secret": null,
    "api_secret_key": "EZ+MSYiLu7F+vWQuHKydaHjGTjfVAvRvQkQr+13a8l0=",
    "register_as_oauth_app": null
  },
  "gitlab_kas": {
    "api_secret_key": "Y2NkZjFmNGRhZjAxYWMyYzY1NGJmN2ZkMjVjNzE0NDM=",
    "private_api_secret_key": "YTI3MTMzZTFkZjJkMjFiYjY5Zjg4YWQzNTg5NjRlZjQ="
  },
  "suggested_reviewers": {
    "api_secret_key": null
  },
  "registry": {
    "http_secret": "805dcf66c440c09a50c99074db97b1ec36f5c431b6f0291ab54a6f7bef0cd74a1cea93d0f232a4d83a86db34cbc7ff14356b0198b845ab94fa0043eab797db01",
    "internal_certificate": "-----BEGIN CERTIFICATE-----\nMIIFBTCCAu2gAwIBAgIBADANBgkqhkiG9w0BAQsFADBGMQwwCgYDVQQGEwNVU0Ex\nDzANBgNVBAoMBkdpdExhYjESMBAGA1UECwwJQ29udGFpbmVyMREwDwYDVQQDDAhS\nZWdpc3RyeTAeFw0yMzEwMjgwNjU2MDFaFw0zMzEwMjUwNjU2MDFaMEYxDDAKBgNV\nBAYTA1VTQTEPMA0GA1UECgwGR2l0TGFiMRIwEAYDVQQLDAlDb250YWluZXIxETAP\nBgNVBAMMCFJlZ2lzdHJ5MIICIjANBgkqhkiG9w0BAQEFAAOCAg8AMIICCgKCAgEA\nmn1ZvFLXyPBCGDoY+QEgBmFNnyY2lFv5ZK+VftTzmWVLx/weut4vfiCwFSRcf7uT\nKQcROu5uZq1n06N1O+AZRCfX8NndPo5U9pwj8qAD2YcD4i1Www4EF5TE81AiAkPj\nU4hNKr+Rl1Q1pA6Bx5+VIkdKYOm/KmXc12m74dRbs2bJjhRiI+uWdhGSfveH52PE\n/W6kTeezvWRtZk+sk/jY0rduXFHiyaDnP17x8a+N4vP3Ry251tIUA26c0gTEsZWQ\nsFGeZEm/th1eQ3nsib1efS5I5JoMO6iR0ZPcMNvkIE8EErVkahcDPPXHLeNRxaer\ni5CxT3GCRD55+SnoSPNuLdjNYL/2sxcmWL/yA6ikE2OwToH+8dHO2cbvf/HyOBBf\n9QkIZIu9dwIRYCeJa/IAMDaEuSMOo00mCSoDm5lqrID96MJeTnn1k773WF81IkYP\ny1D1YWbrPA0tsZxVCz31ivHMvt/tpASeqtVn6zfNAzyiIsmXoV34d7II0nCUz8vG\n6DXBzTec/AFsQJ2oXQ+ryY7P3EdB6wCfpN95rQ4R4pqoyfYwbPvAKQgs+Ba54QeG\nZq3mkY2RkO9aOULqm0L7io5xDcelcYrj13qtgyGl+a4nBWUBltoU01VCB+6jIiVF\nyN5op/EyJDRcGY/QcS3ZMFSgB7g1VwiWouKbgRt+y5cCAwEAATANBgkqhkiG9w0B\nAQsFAAOCAgEANQwlWJ73yeUt57ONvYyCdqwQokX2+yjDpZ9Ff9BZrXJPnvwE4y+S\nehHKWvfUCMN6OjmAXTyqnXjxwcIv+DbQXJaeds6mCiZkOwTZCkg1rZ2Fap7DDVaE\n6fsvLPi/k99RjwX07RULctiGEV2yJAF0KOljZn9l8okptqZGbor2ZslO4M5O4Uvx\nC3ptnCwhxwOCOI5fhVoqyZk5mlwa7s2RO8QmkxAqkhvTn0PQGau8/MdIYIEEAh55\nYe257mM31HB/OjFnpPprIgGvq9O1TbLb+Nj7/r16KxLQ/ICKux2GxOhkgEWFBUhd\n0r71gf6DCuZrpUC3qqLCFckedsdzcq/CNdDTiOM/UCevpWEvN8zX9/pkieH0PeNk\nqeWFBL0oFesF9DdteA3GoEz7SW3KWNF32M2ksO3ZsTv6o0g1NkPxywWD++SDA9L9\nUKwnll7D1gw/Da6zuDTEcf6m1bSBEStmvTvPJHeqZT6A7MRxZshNAWLRsP2FHGIL\n99JUZFycdeOBkxkprX47NY4/xsALJ1/eeZeu1HaaWO9h8xXMtxpZUktVX26EU1aT\nwvGnnbKZ/NEwMC7j3QO13A+TMGjP4eWbIJx4H/dAufUzoPUSFtkcg8ilD1sFv0Xh\nASw5rVyrhW5Y/RGWfCl4Rfsk/quHZSfSeeOmMbx5tEb0XSpFbKzjGEE=\n-----END CERTIFICATE-----\n",
    "internal_key": "-----BEGIN RSA PRIVATE KEY-----\nMIIJKQIBAAKCAgEAmn1ZvFLXyPBCGDoY+QEgBmFNnyY2lFv5ZK+VftTzmWVLx/we\nut4vfiCwFSRcf7uTKQcROu5uZq1n06N1O+AZRCfX8NndPo5U9pwj8qAD2YcD4i1W\nww4EF5TE81AiAkPjU4hNKr+Rl1Q1pA6Bx5+VIkdKYOm/KmXc12m74dRbs2bJjhRi\nI+uWdhGSfveH52PE/W6kTeezvWRtZk+sk/jY0rduXFHiyaDnP17x8a+N4vP3Ry25\n1tIUA26c0gTEsZWQsFGeZEm/th1eQ3nsib1efS5I5JoMO6iR0ZPcMNvkIE8EErVk\nahcDPPXHLeNRxaeri5CxT3GCRD55+SnoSPNuLdjNYL/2sxcmWL/yA6ikE2OwToH+\n8dHO2cbvf/HyOBBf9QkIZIu9dwIRYCeJa/IAMDaEuSMOo00mCSoDm5lqrID96MJe\nTnn1k773WF81IkYPy1D1YWbrPA0tsZxVCz31ivHMvt/tpASeqtVn6zfNAzyiIsmX\noV34d7II0nCUz8vG6DXBzTec/AFsQJ2oXQ+ryY7P3EdB6wCfpN95rQ4R4pqoyfYw\nbPvAKQgs+Ba54QeGZq3mkY2RkO9aOULqm0L7io5xDcelcYrj13qtgyGl+a4nBWUB\nltoU01VCB+6jIiVFyN5op/EyJDRcGY/QcS3ZMFSgB7g1VwiWouKbgRt+y5cCAwEA\nAQKCAgBS+DFCaAeF3irREhqpWIZXhtiGOaKkaQT2oyoZtMqjPnjFjcz/NSayiWGn\n6SBYZWfyZ95EFRtrv4N8cVQb9Q38wZ1Ct+8PkqdkzpSr0G5g3Bck2I65MQTXmUlx\nFz88kjM7gH9ZDwtlB4/LbRMcH8ObZkg25jKJ1a0Wb6286izZm8FxsdbHTdY/0M4p\nrEzr43Q/W7WYNXEdrRroELAxxDrGaEc4A65V9TlcmmQ8FbmRAs9yBcfB7I9dDIHi\ndTch3J6ZYyw61jTE3N7sREXZ778YYcw6IdWiELVHpi5ieyX4iBc66Ppl07gkfCcd\nqPEYwyTpTqs7bE220wr02yHqU/p+hUuIvdtN6JMSZUsdPXdaIG+UArPXPIzT0C+J\n4f7XVrwV9Eo8L5gfi1fEbUkmTiPoOVwFEwaGq8iEEuL/TC9TnqLp1BnGBXQ8k7/j\nBxd6OgneyAQQC5R24UdzCeEQP9q7WEtQhXNStJyUxeTzxzG/J3vwEO5NJss+6o9K\nprR5nnikWFniFQ2+8MSrp2Gs+wRA89Jq55MG2kIG4a1cflTFRBL4cDR5BsYGF70n\nRCmllCAg+Jwnq4KUho8Nz46ZfuELinW4i5Dhc9UE7v44fQtjg8b0B+8eP71M8P+8\neq84AJYFVsqbAfy9hY1TCLwGKYQxSnB+N7AjsTjNTssJLgmzwQKCAQEAyJw3IGEQ\n/QaRJs8EhrtIovlMyxdSi0ehkJo0ogsE2mZ4jovanCiBLvIozmMh086WmQuX25H0\nz8yVrP1ChEf2PSV7cin+ayrJlhoSlvD0fLsyNBxwemhepuC/qm2n1jrB1M4s4M0W\nOckopoXYUUvcMAqySyZdGTqxzFFSNJeqyB4p/bCeLrAsrDqaSigcsH+DHk3Di84l\nl/OJHu3IGREIjceoOBRRYgw5T9++UIgBRZ31QcyigKhyQUIEbhqpLJ2iMrbOJtUT\nCy7lIc+hVOfGSpfCkfzBmEU6Nvzts+epNTjT1U86aru1IgF4y9wyMdROXb+jgGWb\nIbv6a3lYccEotwKCAQEAxSUu4RDs6MgqR8I//BOMNfh8QtScLnXRr+H/IJAbRv+V\nZOtsv8lVqYX9gpxYoEw/OFQGhw092FZvCL7KnGS7ywRGTmVr5gQRK17Ka1EJKy2X\nqoat2gah+m1aUoWy9FLVXmCDuIEMWVppXsttUHdRAegGLE8juDej3Ab18F3vmWaj\nDZis/sIWF2jhZISp6uRqKmXQA2wo/Hez8vaqdbIty/ho+fwRKU621jjwtgxygZPN\nat8GYOTmqsB61xBk92Z3H4gKZHidtq7AYRAK9S0oqrJiqvamD7VHN9pGfBQI845j\nDbYGQt+NRpl+miOh9MtHd3L1jX8E1hXhjos4+CfUIQKCAQEAjH3imXmBFUKpGt22\nVMkKaKBhKIYP19z1iDiGjclbv7wtx96n3d78Aa2z6D5CrXwruckFs872/SRQ2lKP\nZ+ahy1bZqi1AsTrI7Kcbx7u97TCISzhziTZYu1QAxtF+ziheILO3eEQIwbVgE6b+\nxIh1Duwey0R1xLp3VBjLkmt5Pibpz3IGhbn5vzBXZ4HJ/c1/PRTG0r0vVMhIinGK\nRgvIyso9w/BuwlS/OnH+bZWiFmg2H7u5PpM5WPxr79QaEFXhBtVBcK6eZKGV9GTd\nnoGnPAwmRmkWB5bL20CtE+Y0eUJwEB4pUiBdDRCs0VBHkuAVddBFKCGAUFK+YNAd\noaTd5wKCAQAuXuOa7rc6vbIsNMWGDjcBjtPziDzANNhAbYDr8Nlppr5GAZYPulSa\nzjhl206BTc3k+uaaJ4QveY0eWnoftRXy16uNzw9FCBndwKsN+P6WGGA/LPSBfuPk\nmooPNQF1tHIZg8wXvsrfzYNRV7n7nkUAlMm27FpzfyrcmwqIIiA0Tc72aL3wIki9\n8t5pHUc2R8ms9UurMmqlj6ZU9K39hw58lo5ilmaW97vLwZLkzyKz1ccQZysB6XVU\nHngGVAXbp09HrGD9Zt151brMWdCqAJg7JkBNBDzlHveEbKP9lVzRpOEpnXH1ks2R\nGJONv+ndQV8q+nBFeuXxUS4/sAGTZRLhAoIBAQCBr5uJfNIaA2mIKFF1d+I5K8an\nHiijxAbtFq5SoEtADtwuKQRLht8QWPbVfNxaAskjQ7HLwHD1yY63kwa6WlAWA2Bg\nGvWKjt6ZU7y/tHR3vAcLIkr2CJgkSnvzpZ958yO696qg+sM5ftPT6Yd+tE5mF42r\nFsOR6wYDvA2v5SZkn53zKAX61PbiG8wVD7vVX2jzMRORjb0J5u4+wLsV++8NbL9D\njGS6FLb5umhFPIFB5UVExcLX23uDo7MOOaF2JSSzTHB/19MSYCum/DjBmqTIfEz5\nLMu4x7qUKKV6PkZ9l5JhTmj0dlZ9wrfqwP2cTEKzqdfneujicf02hsm+emM8\n-----END RSA PRIVATE KEY-----\n"
  },
  "letsencrypt": {
    "auto_enabled": null
  },
  "mattermost": {
    "email_invite_salt": "f9d362a0dbbeedcba39fae48a6a9ab10",
    "file_public_link_salt": "dbf7cf8a994d2ab7d115a216437772fc",
    "sql_at_rest_encrypt_key": "64c7d6b6e2c5dfd6fb662482e1994b7d",
    "register_as_oauth_app": null
  },
  "postgresql": {
    "internal_certificate": "-----BEGIN CERTIFICATE-----\nMIIFBzCCAu+gAwIBAgIBADANBgkqhkiG9w0BAQsFADBHMQwwCgYDVQQGEwNVU0Ex\nDzANBgNVBAoMBkdpdExhYjERMA8GA1UECwwIRGF0YWJhc2UxEzARBgNVBAMMClBv\nc3RncmVTUUwwHhcNMjMxMDI4MDY1NjAyWhcNMzMxMDI1MDY1NjAyWjBHMQwwCgYD\nVQQGEwNVU0ExDzANBgNVBAoMBkdpdExhYjERMA8GA1UECwwIRGF0YWJhc2UxEzAR\nBgNVBAMMClBvc3RncmVTUUwwggIiMA0GCSqGSIb3DQEBAQUAA4ICDwAwggIKAoIC\nAQCjc7pxkCmYWnVT1HAd4GcAwW7R0u47UD0LxbsYdwnEw7JgN71Y/xDmYyexH2iQ\ngvfjjItYSUttArJ8ilrorvlb0B/hqdcdnej8+AgVhayqb2JCLU2J5S2XL5kdLeFJ\nTOshIbDAucnsr5PT+bEdnZPYmWCemAnPHF9779itjJPWXOjAEk28hDDhDT1VKVQJ\nR1Nnz6U9BcAQlmqSpUc+wHqxKq5VimKj6R0izpyvY0qMJiEvSsheq8IcrFuzacXH\ngXCyVmc9wgqQomQhwniAauGiU6QwKMoI/8OF6AUipWNxCucMTIP2QO3xcUTmT/Au\ngX53VV0pfon7ODDwVJu2kw1qV4G9QzXIapRQYl9NzbkQ5ZOiOZf+FWBrSHI/2uuJ\n5ByE5pEA7ArVqsKTz6FepehQvKbjo4cpwys1KOEiRZjjzibzlq3p78HW+SQviQEf\nsfn6hjIy49676wl3k2RfE8XUu2AvoF5VROhrBn4PS+OoSSSEiBa1+TKnP5Q/4Xjs\npf3iwqO19y25gIoWizDGkzaX8LOM32TUsUFwOIU2MyPD5OtZf93/GbvSs3Y+B8Xa\n//u5C+cqYFURExElSUX3mqZV+Uh2ylF/Ud11mahDFI3S+qGcCvdN0NXLlNPCFjN5\npMXVUlqRaOUvnSmJbngKMO1mWf2dLLYl8vWwPXG6S/SQ9QIDAQABMA0GCSqGSIb3\nDQEBCwUAA4ICAQBUPGrP2RtI1MrGcNd4tj6K2z/hM0ECrm59tXn7AfromXrOAVtl\nT01yGaom2xgn/74GXEiDEkcV58upW1ek9NsNVwlrutx4aD4wPXgIGuPuUKvX9BXy\n3kipIwauUyzcl3zlEF4HzyTjFz63rm+wdURGoVL82l6/uV7Ai87yb+QbhsXSprTQ\nGLwpKfGTLcbHJ4gYeVNo0IA89wynZ2e6KyaAMI1yZp1vpokpEMCQ/amyhYhItRDK\neWkunbBjsXiFlFAJGGhp8+kdOaoQRnronvIb4+UQEXFb5d6ZGaaRrfg0s2c3OQ5g\nFbq1/evtDJKxzWoDcEyN8TSQWyClhGKuIdPbRmnDG5FuPr0Y7cyi2XR4Kp8uo/h2\nMfScPcu0TQ1wBduNKq0BIUpql4TQ61fSHRZj6DXd38TSeOo63F0YFHxclenSPXK0\njDQD0WkIDApQmrpOmpnRMKFVeWl7H28RKpNmZyeXWx6u9t7QMsXSIpTrh3pjRZX2\nP3FhTeyn3uwMl420mTr9kqpkdQrMGhNVFgixw2o8x+6WQAMU9CudB5iNYpt2RWkx\ndtwfa+AGAnumckeJe0/3D5ho+JshXH705tyQoI18QaeFcAWK9oA7J89jwE6of5Ty\niLamE4g1IVVYFWpHxwjU9RrzRV9T4DUCN2ZUErUp31RNTK4HTudwK01i2g==\n-----END CERTIFICATE-----\n",
    "internal_key": "-----BEGIN RSA PRIVATE KEY-----\nMIIJKgIBAAKCAgEAo3O6cZApmFp1U9RwHeBnAMFu0dLuO1A9C8W7GHcJxMOyYDe9\nWP8Q5mMnsR9okIL344yLWElLbQKyfIpa6K75W9Af4anXHZ3o/PgIFYWsqm9iQi1N\nieUtly+ZHS3hSUzrISGwwLnJ7K+T0/mxHZ2T2JlgnpgJzxxfe+/YrYyT1lzowBJN\nvIQw4Q09VSlUCUdTZ8+lPQXAEJZqkqVHPsB6sSquVYpio+kdIs6cr2NKjCYhL0rI\nXqvCHKxbs2nFx4FwslZnPcIKkKJkIcJ4gGrholOkMCjKCP/DhegFIqVjcQrnDEyD\n9kDt8XFE5k/wLoF+d1VdKX6J+zgw8FSbtpMNaleBvUM1yGqUUGJfTc25EOWTojmX\n/hVga0hyP9rrieQchOaRAOwK1arCk8+hXqXoULym46OHKcMrNSjhIkWY484m85at\n6e/B1vkkL4kBH7H5+oYyMuPeu+sJd5NkXxPF1LtgL6BeVUToawZ+D0vjqEkkhIgW\ntfkypz+UP+F47KX94sKjtfctuYCKFoswxpM2l/CzjN9k1LFBcDiFNjMjw+TrWX/d\n/xm70rN2PgfF2v/7uQvnKmBVERMRJUlF95qmVflIdspRf1HddZmoQxSN0vqhnAr3\nTdDVy5TTwhYzeaTF1VJakWjlL50piW54CjDtZln9nSy2JfL1sD1xukv0kPUCAwEA\nAQKCAgEAmS3Zqpe6A4eysM9ECxvELBcbLhSJIpj9vMyfnDvisb3cqwNRtdfEFMUT\n65BNxDCY821BIYn+37hJYSGgNLPWCM8xMaCjcqQMNxaTLOhLeqZL5Uzjf7mBUlBP\nI+NdX/5v1GroZJU4wVGCLoOwEtscNT74J2jAuJIUgeeynmJCIgCMN4RvyZ3w2Ng5\nhFfo45EufvlAF8INzv3H/opaDFsCIIqpOo0oCAhtP7N1b4CT2mfZbaKdyOsaTRjS\nD3+u1FtgLCGBO4VftVAamvDPUTnZHvFXy7JONMTMje908JUibkwTX5lNijgrRbwr\nH9QGeO7ugBNF7Z8i3IY6huAj1aRWSrTOliGGxL5+etlnIjzV6MOIaW9BO9DvHRgQ\nwiBX+vHzOHVrq5y4jsH+3mpRL5Q3fuwXlBUKByR5id4MfuaKGFTLpy/tNfOVABSS\nSZk9F3E75eUAhgFC/wn+1EpjqLqQw6VWYCbiDTHMZUbfpwBmdv7uB0hkvR05d00d\nYcZ1/djc5grT7eV8+AaVdEoJIqkQFJ8dq09CQi/RP6QQUsMVac+miJ2i58EEcREV\nf1xpUHVQOImoV7UmIDUGhUjsrrDOQarMytHuZq0jBTzBt1a1XEF72R4kp/Ib3tV+\n5dGPxpNA42rjosX5U9DQiLeZssjEkHwzv367BAibCL1qim/9UbkCggEBANYFwbiV\nOXyaQvjnAqQjZhqUOEZP6lGwoWAy4YUgPATBDR4d9GsSYeZsGEL87Cr11EJ2fl4B\n9i4/r1BE706GPbVyvgS9hY4WEsk5HkD5GFvKbPfRLo8d6WmnEue09XAIo7W4vTQB\n+wKMSDdtcpYoeRPI5qXGqEw1x+UTRrM1B+mWJDmqnQUF2dekMq/XK1TyWMy/c2wv\nRi/DblcMyvMjITrXmEpWccr7Z7sN9f7pXKjyf6wlecoGlW7659EP5Y8cyMxU2CWL\nXUEOX6WQ5qFGnhHPFgzBV0XIOqsZcdGaIWK4vrK0H7dwSpaO5MpqMpnrnv+VHUsM\nioAlH/lSS2onyYsCggEBAMOCyhksqmriEC4diaBo76c9A+YEA9mD/3aQ1qpQzhGV\nOoImESU+y9Z8z7D1AGAO3/98FI6HgohryLSDK2Q1MN4THknabSop7fqbHxre4tbC\ncUixpmG0JDjiSbByCTiHGsWjsH2B+VvFTW98MV8JI8xso3v52X+1+EsakPo21mkd\nLjOAOeS7Dat1nOZ01pjUSoxBnff3hSTR2RPMAPbkacog/d8s8nPWzxEFq1IPSHfU\nCf2tF+jafn7alYlov6JlTZ13CxicP7YnGVsKcqGolEX/OGHFuxf80IFMwrC7KALu\nRkiF3gARU5b81qzDh9WZRxqiZ6VUmT2u0iNH20bnX38CggEBAKspF3BDByJ7TCw6\ns4YJOVLwTsEMkFycYbLJfko1KUq0CYWYdyxaGyloMU8Bbu48g3BTy2PrNbJvBAmx\n16B5A0jlZsnrt6+WP5flsihMDgr6rILUK+QRC+aO0zOzKMZcYnCmOcop+1BiWC7b\nvNQRsiL8fFj/swCf0imFbPlM4/MPPBFSPRkTQNCQZGj0L5dT6Wh1hB11ATCZntjH\nRleENMMWQJjS4VZwENkrpRwkDRKgPTKzFd9XvJJw3ov3pqL5Zizjfako939bu2px\no8A+9ZNQhlXVGbKZGzJSuw/hr+l/ziKkoujVSRF3XcnzfFxUb2f/HNo0QV+SUSvX\ngLB4+VkCggEAKYOwHkBZv3BZNzGWc7VUjhJqrYDUwG9C445Fxsx5tUoWrmQe5+W5\nqsW95Dlh5wPBlKJoSwuDMCyS5aGkqRaSVdWBbPUwkO9uVPRzWmVRjYCkRWdTiROT\nTXDfbNQKGTK3AJiNdVkP9eijVLTuVtu9+j5nSH/5KyEco/X0Ku1SAefsU4s6v9Lo\nSCwlMNpGZxVM7xNP08N/Rh45FfcPjV1bCUyQG7+Ti/1k4pxtkHMmVCt2I6OJnCwp\nCA6qCg9wAa+5F2KbvJIRBUCwJaDGToVZVrOm6TvvSlyoeYwvGw/ioxytV+D1Dtaf\nBUSS4QRz52swqfsqPvUDxRFGFa/AZAHlSQKCAQEAwHGrNa0qvi9RU40Mqo/eHiry\nuSilcfV140mQ8AK1LoEInwazUBY2MSo5kATnz8v1v8qO6Cb+w/rkPb20oDQhki3b\n4emKAuPnQvAEwFTbv22ucpVEtdgymM2p6BT8kArobXpl5pQH+ipESOLmtye+zd4l\nOn6quB8U6vZloszD6WJX8kYZUM+IAGI/GpIitVXErbnaCdkSBRQcO1/YQ2dcYQaA\nXq70IE03KHB0n1DJl9ZEQvX8maNfFqjvoY+EIeFr6WNprNNSAScVdIk5+sGmgfBb\nOQ2YeI+3Ikg+35gKMIDIfdCWJoeuedCDqPnkAkOVZ9tEAzBtdDu/t+dzeXkUgA==\n-----END RSA PRIVATE KEY-----\n"
  },
  "mailroom": {
    "incoming_email_auth_token": null,
    "service_desk_email_auth_token": null
  }
}
